{
  "columns":[
    {
      "width":150,
      "allowSorting" : true,
      "allowEditing" : true,
      "type":"number",
      "format":"N2",
      "editType":"numericEdit",
      "field":"PartyId",
      "headerText":"PERSON ID",
      "visible":false
    },
    {
      "width":150,
      "allowSorting" : true,
      "allowEditing" : true,
      "type":"string",
      "format":null,
      "editType":"defaultEdit",
      "field":"MrNo",
      "headerText":"MR NO",
      "visible":true
    },

    {
      "width":150,
      "allowSorting" : true,
      "allowEditing" : true,
      "type":"string",
      "format":null,
      "editType":"defaultEdit",
      "field":"Nama",
      "headerText":"NAMA",
      "visible":true
    },

    {
      "width":150,
      "allowSorting" : true,
      "allowEditing" : true,
      "type":"datetime",
      "format":"dd MMMM yyyy",
      "editType":"defaultEdit",
      "field":"TglLahir",
      "headerText":"TGL LAHIR",
      "visible":true
    },

    {
      "width":150,
      "allowSorting" : true,
      "allowEditing" : true,
      "type":"string",
      "format":null,
      "editType":"defaultEdit",
      "field":"Sex",
      "headerText":"SEX",
      "visible":true
    },

    {
      "width":150,
      "allowSorting" : true,
      "allowEditing" : true,
      "type":"number",
      "format":null,
      "editType":"numericEdit",
      "field":"Umur",
      "headerText":"UMUR",
      "visible":true
    },

    {
      "width":150,
      "allowSorting" : true,
      "allowEditing" : true,
      "type":"string",
      "format":null,
      "editType":"defaultEdit",
      "field":"Alamat",
      "headerText":"ALAMAT",
      "visible":true
    },

    {
      "width":150,
      "allowSorting" : true,
      "allowEditing" : true,
      "type":"string",
      "format":null,
      "editType":"defaultEdit",
      "field":"Kecamatan",
      "headerText":"KECAMATAN",
      "visible":true
    },

    {
      "width":200,
      "allowSorting" : true,
      "allowEditing" : true,
      "type":"string",
      "format":null,
      "editType":"defaultEdit",
      "field":"Kota",
      "headerText":"KOTA",
      "visible":true
    },

    {
      "width":250,
      "allowSorting" : true,
      "allowEditing" : true,
      "type":"string",
      "format":null,
      "editType":"defaultEdit",
      "field":"LastNote",
      "headerText":"CATATAN TERAKHIR",
      "visible":true
    }
  ]
}
